C:\Users\saito.kana\workspace01\20ch\src\main\java\jp\co\kenshu\entity\Text.java
C:\Users\saito.kana\workspace01\20ch\src\main\java\jp\co\kenshu\dto\text\CommentTextDto.java
C:\Users\saito.kana\workspace01\20ch\src\main\java\jp\co\kenshu\form\TextForm.java
C:\Users\saito.kana\workspace01\20ch\src\main\java\jp\co\kenshu\dto\text\TextDto.java
C:\Users\saito.kana\workspace01\20ch\src\main\java\jp\co\kenshu\controller\TextController.java
C:\Users\saito.kana\workspace01\20ch\src\main\java\jp\co\kenshu\mapper\CommentTextMapper.java
C:\Users\saito.kana\workspace01\20ch\src\main\java\jp\co\kenshu\entity\CommentText.java
C:\Users\saito.kana\workspace01\20ch\src\main\java\jp\co\kenshu\form\CommentTextForm.java
C:\Users\saito.kana\workspace01\20ch\src\main\java\jp\co\kenshu\mapper\TextMapper.java
C:\Users\saito.kana\workspace01\20ch\src\main\java\jp\co\kenshu\service\TextService.java
